{
    "data": [
        {
            "type": "node--blog",
            "id": "7a1fc8a6-6ec9-45dd-b8e6-3e0b5eab9b13",
            "attributes": {
                "title": "Setting the standard"
            },
            "links": {
                "self": "http://nagtegaalblog.local/jsonapi/node/blog/7a1fc8a6-6ec9-45dd-b8e6-3e0b5eab9b13"
            }
        },
        {
            "type": "node--blog",
            "id": "038bd752-b49e-4a3d-94ed-5c3ac0a50e3f",
            "attributes": {
                "title": "How to get SSAD"
            },
            "links": {
                "self": "http://nagtegaalblog.local/jsonapi/node/blog/038bd752-b49e-4a3d-94ed-5c3ac0a50e3f"
            }
        },
        {
            "type": "node--blog",
            "id": "7ba15596-1d95-4fae-ab46-0d2978cda669",
            "attributes": {
                "title": "What the fq? A short summary of Solr query fields"
            },
            "links": {
                "self": "http://nagtegaalblog.local/jsonapi/node/blog/7ba15596-1d95-4fae-ab46-0d2978cda669"
            }
        },
        {
            "type": "node--blog",
            "id": "844d5bda-f04a-48e7-88f2-c4538dca92f7",
            "attributes": {
                "title": "Making your customers pay"
            },
            "links": {
                "self": "http://nagtegaalblog.local/jsonapi/node/blog/844d5bda-f04a-48e7-88f2-c4538dca92f7"
            }
        },
        {
            "type": "node--blog",
            "id": "8c91d313-172b-4076-ad4c-6d890ab1275d",
            "attributes": {
                "title": "Going Dutch: stemming in Apache Solr Stemming"
            },
            "links": {
                "self": "http://nagtegaalblog.local/jsonapi/node/blog/8c91d313-172b-4076-ad4c-6d890ab1275d"
            }
        },
        {
            "type": "node--blog",
            "id": "b378130c-2901-41d4-8117-3a14bf714305",
            "attributes": {
                "title": "Off with his head"
            },
            "links": {
                "self": "http://nagtegaalblog.local/jsonapi/node/blog/b378130c-2901-41d4-8117-3a14bf714305"
            }
        }
    ],
    "jsonapi": {
        "version": "1.0",
        "meta": {
            "links": {
                "self": "http://jsonapi.org/format/1.0/"
            }
        }
    },
    "links": {
        "self": "http://nagtegaalblog.local/jsonapi/node/blog?fields%5Bnode--blog%5D=title"
    }
}
